{
  "CompanyName":        "Cinc Project",
  "ClientProduct":      "Cinc Client",
  "ServerProduct":      "Cinc Server",
  "SoloProduct":        "Cinc Solo",
  "WorkstationProduct": "Cinc Workstation",
  "AutomateProduct":    "Cinc Dashboard",
  "ClientExec":         "cinc-client",
  "ZeroExec":           "cinc-zero",
  "SoloExec":           "cinc-solo",
  "ShellExec":          "cinc-shell",
  "AnalyzeExec":        "cinc-analyze",
  "ApplyExec":          "cinc-apply",
  "DirSuffix":          "cinc",
  "UserConfDir":        ".cinc",
  "WorkstationDir":     ".cinc-workstation",
  "WorkstationExec":    "cinc-cli",
  "CLIWrapperExec":     "cinc",
  "DocsWebsite":        "https://docs.chef.io",
  "WSWebsite":          "https://cinc.sh",
  "MainWebsite":        "https://cinc.sh"
}
